Package            Version   
------------------ ----------
astroid            2.3.3     
attrs              19.3.0    
autopep8           1.4.4     
backcall           0.1.0     
bleach             3.1.0     
certifi            2019.11.28
colorama           0.4.1     
decorator          4.4.1     
defusedxml         0.6.0     
entrypoints        0.3       
importlib-metadata 0.23      
ipykernel          5.1.3     
ipython            7.9.0     
ipython-genutils   0.2.0     
ipywidgets         7.5.1     
isort              4.3.21    
jedi               0.15.1    
Jinja2             2.10.3    
jsonschema         3.1.1     
jupyter            1.0.0     
jupyter-client     5.3.4     
jupyter-console    6.0.0     
jupyter-core       4.6.1     
lazy-object-proxy  1.4.1     
MarkupSafe         1.1.1     
mccabe             0.6.1     
mistune            0.8.4     
more-itertools     7.2.0     
nbconvert          5.6.1     
nbformat           4.4.0     
notebook           6.0.2     
numpy              1.17.3    
pandocfilters      1.4.2     
parso              0.5.1     
pickleshare        0.7.5     
pip                20.0.2    
pipenv             2018.11.26
prometheus-client  0.7.1     
prompt-toolkit     2.0.10    
pycodestyle        2.5.0     
Pygments           2.4.2     
pylint             2.4.3     
pyrsistent         0.15.5    
python-dateutil    2.8.1     
pywin32            225       
pywinpty           0.5.5     
pyzmq              18.1.0    
qtconsole          4.5.5     
Send2Trash         1.5.0     
setuptools         41.2.0    
six                1.12.0    
style              1.1.0     
terminado          0.8.2     
testpath           0.4.4     
tornado            6.0.3     
traitlets          4.3.3     
typed-ast          1.4.0     
update             0.0.1     
virtualenv         16.7.7    
virtualenv-clone   0.5.3     
wcwidth            0.1.7     
webencodings       0.5.1     
widgetsnbextension 3.5.1     
wrapt              1.11.2    
zipp               0.6.0     
